{
    "User" : {
    "Name" : "ZAZA",
    "etudes" : "M1",
    "win" : "46"
    }, 
    
    "User2" : {
    "Name" : "Franck",
    "etudes" : "M1",
    "win" : "77"
    },

    "User3" : {
        "Name" : "Paulo",
        "etudes" : "B3",
        "win" : "4"
    },

    "User4" : {
        "Name" : "Philipe",
        "etudes" : "B3",
        "win" : "3"
    }
        
    
    
}



